"새주소","지번주소","좌표정보","좌표정보","테마코드","콘텐츠 코드","언어셋(KOR : 국문, ENG : 영문, JP : 일문, CHA : 중문-간체, CHB : 중문-번체)","콘텐츠 명","시도명(텍스트)","구명","동명","산지여부","주 번지","부 번지","기타주소","전화번호","상세정보 값 1","상세정보 값 2","상세정보 값 3","상세정보 값 4","상세정보 값 5","상세정보 값 6","상세정보 값 7","상세정보 값 8","상세정보 값 9","상세정보 값 10","상세정보 값 11","상세정보 값 12","상세정보 값 13","상세정보 값 14","상세정보 값 15","상세정보 값 16","상세정보 값 17","상세정보 값 18","상세정보 값 19","상세정보 값 20","상세정보 이름 1","상세정보 이름 2","상세정보 이름 3","상세정보 이름 4","상세정보 이름 5","상세정보 이름 6","상세정보 이름 7","상세정보 이름 8","상세정보 이름 9","상세정보 이름 10","상세정보 이름 11","상세정보 이름 12","상세정보 이름 13","상세정보 이름 14","상세정보 이름 15","상세정보 이름 16","상세정보 이름 17","상세정보 이름 18","상세정보 이름 19","상세정보 이름 20","좌표데이터","좌표 타입 (1:Point 3:Polyline 4:MultiPolyline 5:Polygon 6:MultiPolygon 8:multiPoint)","선 두께 1~10","테마 선 색상","키워드","등록일","수정일"
"서울특별시 영등포구 여의서로 62 (여의도동)","서울특별시 영등포구 여의도동 84-9","126.927777381","37.531150024","100200","camp2018_1","KOR","여의도 캠핑장","서울특별시","영등포구","여의도동","","84-9","","","1544-1555","넓고 탁 트인 공간에 자리잡은 캠핑장으로 답답한 도시의 일상에서 벗어나 휴식을 즐길 수 있는 캠핑장입니다. 150동의 텐트가 설치되어 있으며 캠핑장 주변에는 물빛 광장이 있어 무더운 여름의 더위를 조금이나마 식힐 수 있고 아이들과 물놀이를 즐길 수 있습니다.","[이용시간] - 3시 입영 ~ 익일 오전 11시 퇴영(텐트 내부와 주변을 깨끗이 정리하고 대여품은 반드시 반납하셔야 합니다.)  [이용요금] - 텐트(4인기준) : 평일 15000원 / 주말(금토일)공휴일(전일당일) 25000원 - 입장료/인(피크닉 또는 텐트초과인원) : 평일 4000원 / 주말(금토일)공휴일(전일당일) 4000원  [초과인원에 대한 가격 및 할인 기준]  1. 텐트 4인 초과 인원 또는 피크닉존 입장료는 1인기준 4000원 입니다. 2. 초등학생 이상은 성인 요금이 부과되며 6~7세 2000원 5세 이하는 무료입니다. 3. 장애인 등록증 소지자 1~3급은 동반 1인까지 50%할인 4~6급은 본인만 50% 4. 65세 이상이신 분들은 50%할인 (신분증 확인) 5. 다둥이 행복카드 소지자는 카드에 등제 된 가족에 한해서 50%할인(서울지역 해당) 6. 국가 유공자 증서 소지하신 분은 보인에 한해 50%할인","http://www.hancamp.co.kr/page/sub2_1","*버스로 오실 때 여의나루역 2번출구 하차 7613 7611 5713 5633 5618 5615 5534 108 753 261 10 108 영등포10 여의나루역 1번출구 하차 6623 5713 5633 5534 753 360 261 262 662 461 7007-1  *지하철로 오실 때 여의도한강공원 5호선 여의나루역 23번출구 샛강생태공원 9호선 샛강역 4번출구 9호선 여의도역 1번 출구  *승용차로 오실 때 올림픽대로 잠실방향으로 오실 때 여의도 밑으로 진입하여 노량진수산시장 방향으로 들어온 후 주차장 이용 올림픽대로 공항방향으로 오실 때 한강철교를 지나 63빌딩앞 진입로 이용 강변북로(강북방면)로 오실 때 원효대교 건너 남단에서 우회전 진입  *주차안내 캠핑장 주차장은 별도로 운영하지 않습니다. 가급적 대중교통을 이용하시고 차량 이용 시 에는 한강시민공원 주차장을 이용하시면 편리합니다.","http://ticket.interpark.com/Ticket/Goods/GoodsInfo.asp?GoodsCode=18007606","","","","","","","","","","","","","","","","소개","이용안내","더 자세히보기","오시는 길","예약 바로가기","","","","","","","","","","","","","","","","","1","","#0000FF","","2018-06-28 13:28:56.0","2018-06-28 13:53:04.0"
"","서울특별시 광진구 자양동 435","127.071188454","37.528729280","100200","camp2018_2","KOR","뚝섬 캠핑장","서울특별시","광진구","자양동","","435","","","1544-1555","각종 체육시설과 인접하여 있고  음악분수의 운영으로 시원함까지 제공할 수 있는 캠핑장입니다. 한강 수영장 근처에 자리잡은 뚝섬 캠핑장은 130동의 텐트가 설치되어 있습니다","[이용시간] - 3시 입영 ~ 익일 오전 11시 퇴영(텐트 내부와 주변을 깨끗이 정리하고 대여품은 반드시 반납하셔야 합니다.)  [이용요금] - 텐트(4인기준) : 평일 15000원 / 주말(금토일)공휴일(전일당일) 25000원 - 입장료/인(피크닉 또는 텐트초과인원) : 평일 4000원 / 주말(금토일)공휴일(전일당일) 4000원  [초과인원에 대한 가격 및 할인 기준]  1. 텐트 4인 초과 인원 또는 피크닉존 입장료는 1인기준 4000원 입니다. 2. 초등학생 이상은 성인 요금이 부과되며 6~7세 2000원 5세 이하는 무료입니다. 3. 장애인 등록증 소지자 1~3급은 동반 1인까지 50%할인 4~6급은 본인만 50% 4. 65세 이상이신 분들은 50%할인 (신분증 확인) 5. 다둥이 행복카드 소지자는 카드에 등제 된 가족에 한해서 50%할인(서울지역 해당) 6. 국가 유공자 증서 소지하신 분은 보인에 한해 50%할인","http://www.hancamp.co.kr/page/sub2_1","*버스로 오실 때  자양4동차고지 : 2014 신자초등학교 앞 : 2221 2222 2415 광진05  *지하철로 오실 때 7호선 뚝섬유원지역(20m) 23번 출구 2호선 건대역(1000m) 3번출구  *승용차로 오실 때 강변북로 구리시 방향으로 영동대교를 지나 바로 우측의 공원진입로 이용 강변북로 일산방향으로 청담대교를 지나 화양리 방향 표시가 있는 영동대교 북단 사거리에서  우회하여 800m 지점 사거리에서 다시 우회전하여 진입  *주차안내  캠핑장 주차장은 별도로 운영하지 않습니다. 가급적 대중교통을 이용하시고 차량 이용 시 에는 한강시민공원 주차장을 이용하시면 편리합니다.","http://ticket.interpark.com/Ticket/Goods/GoodsInfo.asp?GoodsCode=18007608","","","","","","","","","","","","","","","","소개","이용안내","더 자세히보기","오시는 길","예약 바로가기","","","","","","","","","","","","","","","","","1","","#0000FF","","2018-06-28 13:28:56.0","2018-06-28 13:51:43.0"
"서울특별시 성동구 뚝섬로 273 (성수동1가서울숲관리사무소)","서울특별시 성동구 성수동1가 685-8","127.040755851","37.541981936","100200","camp2018_3","KOR","서울 성동숲 캠핑장","서울특별시","성동구","성수동1가","","685-8","","","02-2286-5654~7","성동 서울숲 여름캠핑장은 연간 750만명이 이용하고 있는 서울의 대표 공원중 하나인 서울숲 내(주차장 인근) 조성하여  접근성을 높였으며 캠핑사이트 모두 나무그늘 아래 위치토록 하여 쾌적성을 높였습니다.  기존의 서울시에 있는 캠핑장과 같이 샤워장 등 다양한 편의시설이 갖추어져 있지 않고 취사도 할 수 없지만  캠핑장 운영기간 동안 천연 모기약 만들기 야간 곤충탐사 작은 문화공연 등 다양한 프로그램 준비하였습니다.  또한 에이치케이디인터네셔날에서 캠핑사이트(평상형 데크) 규모에 맞는 방염처리된 텐트 24동을 기부하여  그동안 캠핑장비가 없어 캠핑을 할 수 없었던 시민들도 성동 서울숲 여름캠핑장에서는 직접 텐트를 치고 접는 등 캠핑을 경험할 수 있도록 하였습니다.  특히 기부텐트 모두 방염 처리된 텐트이고 각 캠핑사이트(24개)에 소화기 비치 24시간 관리인력 상주 등 안전에 최우선을 두었습니다.","[이용시간] 캠핑장 입장 퇴장시간을 준수하여 주시기 바랍니다. - 입장: 당일 오후 2시 ~ 오후 8시까지 / 퇴장: 익일 오전 11시까지  [이용요금] 개장기간은 2017년 7월 1일 ~ 8월 27일이며 기간 중 금?토요일공휴일(광복절)만 운영(19회)합니다. 사용료 :10000  (크기:캠핑사이트 및 테크 크기 3*3m / 텐트 무상대여)","http://parks.seoul.go.kr/camping/camping.html","*대중교통 이용시  지하철 : 분당선 서울숲역 3번 출구 (도보로 약 5분거리) 2호선 뚝섬역 8번 출구 (도보로 약 15분거리) 버스 : 초록버스: 2014 2412 2224 2413 파랑버스: 121 141 145 148 463 *자가용 이용시  내비게이션 위치 : 서울숲 (주소 : 성동구 성수1가 1) / 주차장 :5분당 150원 ※- 캠핑장 입구에 위치하고 있으나 주차면수가 적고 주말 및 성수기에는 이용객이 많아 주차장 이용이 어려움 - 성수1가1동 공영주차장 : 10000원/1일(0시~24시) 1박2일의 경우 20000원","http://yeyak.seoul.go.kr/reservation/view.web?rsvsvcid=S78298","","","","","","","","","","","","","","","","소개","이용안내","더 자세히보기","오시는 길","예약 바로가기","","","","","","","","","","","","","","","","","1","","#0000FF","","2018-06-28 13:28:56.0","2018-06-28 13:55:06.0"
"서울특별시 구로구 금오로 884","서울특별시 구로구 천왕동 230-1","126.841809547","37.476585091","100200","camp2018_4","KOR","구로 천왕공원 캠핑장","서울특별시","구로구","천왕동","","230-1","","","02-860-3086","천왕근리공원 캠핌장은 서울남부교도소 맞은편에 위치하고 있으며 생태연못이 있어 무더운 여름에 청량감을 느낄 수 있는 캠핑장입니다.","[이용시간] 캠핑장 입장 퇴장시간을 준수하여 주시기 바랍니다.  - 입장: 당일 오후 2시 ~ 오후 8시까지 / 퇴장: 익일 오전 11시까지  [이용요금]  -개장기간은 2017년 7월 1일 ~ 8월 27일이며 기간 중 금?토요일공휴일(광복절)만 운영(19회)합니다.  -사용료 :10000  (크기:캠핑사이트 및 테크 크기 3*3m / 1박2일 기준)","http://parks.seoul.go.kr/camping/camping.html","*대중교통 이용시  지하철 및 버스 : 천왕역(7호선) 1번출구 하차 - 구로14번 버스 승차 - 천왕이펜하우스5단지 하차 후 10분 도보 광명사거리역(7호선) 6번출구 하차 - 광명사거리 버스정류장 2번 버스승차 - 서울남부교도소 정류장 하차후 1분 도보 영등포역 신세계백화점 개봉역 영화아파트 - 6640번 버스 승차 - 천왕이펜하우스5단지 하차 후 10분 도보 *자가용 이용시 내비게이션 위치 : 서울남부교도소 맞은편에 위치 (주소 : 구로구 천왕동 230-1)","http://yeyak.seoul.go.kr/reservation/view.web?rsvsvcid=S14593","","","","","","","","","","","","","","","","소개","이용안내","더 자세히보기","오시는 길","예약 바로가기","","","","","","","","","","","","","","","","","1","","#0000FF","","2018-06-28 13:28:56.0","2018-06-28 14:03:48.0"
"서울특별시 마포구 한강난지로 22 (상암동한강야생탐사센터)","서울특별시 마포구 상암동 495-81","126.871307592","37.569717625","100200","camp2018_5","KOR","난지 캠핑장","서울특별시","마포구","상암동","","495-81","","","1544-1555","맛있는 음식을 나눠 먹으며 바베큐 파티를 하는 피크닉은 어떠세요? 피크닉만으로도 캠핑의 느낌을 느낄 수 있는 난지캠핑장에서 다양한 즐거움을 만나보세요.  다양한 매력이 있는 곳 천연 잔디 야구장 물놀이장 생태공원 유람선 요트장 하늘공원 노을공원(조각공원)을 한번에 만날 수 있는 곳. 난지캠핑장에서 다양한 놀이를 즐기며 소중한 사람들과 소중한 추억을 만들어 보세요.","입장료 : 1인기준 4000원(초등학생이상)이고 6~7세 2000원 5세 이하는 무료 캠핑을 위한 캠핑장은 “자가텐트“ 지역과 “임대텐트” 지역으로 나뉘며 텐트를 따로 가져오시는 숙영자의 경우 1사이트 당 15000원(입장료 기본 4인 포함)를 내시면 되고 임대텐트를 이용하시는 분은 아래 이용요금을 참고하시면 됩니다.","http://www.seoul.go.kr/story/camping/nanji.html","*대중교통 이용시 지하철 : 월드컵 경기장역 주변에서 택시 및 콜밴 이용 29호선 당산역 8번 출구에서 9707번 탑승 후 1정거장 버스 : 9707번 버스 노선 이용 ‘난지한강공원’ 정류장에서 하차 가양대교 방향으로 걸어오시면 됩니다. *차량 이용 시 네비게이션을 사용하는 경우 ‘마포구 상암동 495-81번지’ ‘난지야구장’ ‘난지캠핑장’으로 검색하면 됩니다. 난지 가족캠핑장은 난지야구장 바로 옆에 있습니다.","http://ticket.interpark.com/Ticket/Goods/TPBridge.asp?GoodsCode=15006863","","","","","","","","","","","","","","","","소개","이용안내","더 자세히보기","오시는 길","예약 바로가기","","","","","","","","","","","","","","","","","1","","#0000FF","","2018-06-28 13:28:56.0","2018-06-28 14:04:22.0"
"서울특별시 마포구 하늘공원로 108-1 (상암동)","서울특별시 마포구 상암동 481-6번지","126.878616071","37.569468092","100200","camp2018_6","KOR","노을캠핑장","서울특별시","마포구","","","","","","02-304-3213","자연이 도시를 만날 때 어떤 표정을 짓는지 아시나요? 잔디밭에 누워 맹꽁이 개구리 소리를 들으며 노을빛 하늘과 노을로 물들어가는 서울의 장관을 상상해 보세요. 그 광경이 아름답다 느껴지거나 궁금하시다면 월드컵공원 내 노을 캠핑장으로 발길을 돌려보세요.  칙칙한 도심이 아름다운 노을 옷과 검은 별빛 드레스로 갈아입는 모습 자연이 바꾸는 도시의 모습을 노을 캠핑장에서 직접 확인할 수 있습니다.","매월 15일 14시부터 익월분 예약이 가능하며 이용일 하루 전까지 예약할 수 있고 예약 후 48시간 이내에 결제를 하지 않으면 예약이 자동 취소됩니다. (선착순/결제마감 전 결제 필수)    ※ 캠핑장 이용일 2일전부터는 2시간 이내에 결제 마감되오니 유의바랍니다  단체 예약은 평일(화~목)에만 가능하며 주중 공휴일(전날 포함) 및 성수기(7월~8월)에는 단체 예약이 불가능합니다.","http://www.seoul.go.kr/story/camping/noel.html","노을캠핑장은 월드컵 공원 내 노을공원에 위치해 있습니다.","http://ticket.interpark.com/Ticket/Goods/GoodsInfo.asp?GoodsCode=17001823","","","","","","","","","","","","","","","","소개","이용안내","더 자세히보기","오시는 길","예약 바로가기","","","","","","","","","","","","","","","","","1","","#0000FF","","2018-06-28 13:28:56.0","2018-06-28 13:37:05.0"
"경기도 과천시 대공원광장로 102 (막계동서울대공원)","경기도 과천시 막계동 159-1번지 서울대공원","127.013865617","37.436322553","100200","camp2018_7","KOR","서울대공원 캠핑장","경기도","","","","","","","02-500-7335","자동차 소리와 새소리 중 어떤 소리를 들으며 아침을 맞고 싶으세요? 복잡한 서울에서 한걸음만 내딛으면 시냇물 소리에 잠이 들고 새소리에 아침을 맞을 수 있습니다.  자연을 느끼기 위해 먼 길을 달려가지 말고 가까운 서울대공원에서 자연의 참맛을 느껴보세요.","캠핑장 이용안내(3월 30일 개장)  - 개장 및 이용기간 : 3월 30일(매년 개장일) ~ 11월 10일 ※ 개장기간 중 무휴 - 피크닉 이용시간 : 당일 09:00(입장) ~ 당일 19:00(퇴장)  ※ 피크닉 이용자는 사전 예약 없이 매표소에서 입장권 현장구매 후 입장 가능 캠핑장(텐트사용)이용안내  - 사용 당일 12:00(입실) ~ 다음날 10:00(퇴실)  - 이용절차  ? 텐트예약은 사용당일 13:00까지 인터넷으로만 가능하며 이용일 기준 1일 최대 2동까지 예약가능 합니다.  ? 텐트예약자는 이용당일 입장권 현장구매해야 하며 반드시 방문자센터에서 본인확인 후 이용가능합니다.  ? 텐트배정은 기존 선착순 배정에서 예약 시 원하는 구역의 텐트 선택 후 예약으로 변경되었습니다. 캠핑구역 운영 안내  - 주말(금토일) 공휴일 등 연휴 여름방학 : 전 구역(1234구역)  - 평일 : 1구역 2구역부터 순차적 개방","http://grandpark.seoul.go.kr/korea_grand/camping/reserv/reserv02.jsp?menuid=41281&parentId=47343&headerId=41263","*대중교통 이용시 지하철 4호선 대공원역 2번 출구 → 분수대 → 서울랜드 정문 → 현대미술관 →캠핑장 * 분수대 뒤 종합안내소 코끼리열차 이용(동물원에서 하차하여 도보로 현대미술관 → 캠핑장) *차량 이용 시 서울대공원 입구(나들목) → 서울랜드 후문 → 서울랜드 동문주차장 → 현대미술관 → 캠핑장 * 주차장이 협소하므로 대중교통이나 대공원 주차장을 이용하는 것이 좋습니다. 특히 성수기에는 주차에 수시간이 소요될 수 있으므로 일찍 방문해주시거나 대중교통을 이용하는 것이 좋습니다.","https://camp.xticket.kr/web/main?shopEncode=b4326b91b88249effc628d1b4cc714d2dec58eb3de89146841929db714ee7058","","","","","","","","","","","","","","","","소개","이용안내","더 자세히보기","오시는 길","예약 바로가기","","","","","","","","","","","","","","","","","1","","#0000FF","","2018-06-28 13:28:56.0","2018-06-28 13:37:35.0"
"서울특별시 중랑구 송림길 172 (망우동양원청소년독서실)","서울특별시 중랑구 망우동 56번지 양원청소년독서실","127.110617146","37.606984850","100200","camp2018_8","KOR","중랑캠핑숲 가족캠핑장","서울특별시","중랑구","","","","","","02-434-4371~2","캠핑하면 텐트치고 야외에서 음식을 해먹는 것만 생각하시나요? 캠핑 외 다른 즐거움을 찾고 싶다면 중랑캠핑숲을 찾아보세요.   중랑캠핑숲에는 다양한 연령대의 가족들이 다양한 즐거움을 찾을 수 있도록  어린이물놀이장 야외스파 다목적 잔디 광장 어린이 놀이터부터 수변카페 운동기구 전망 데크 및 쉼터까지  다양한 공간이 준비되어 있습니다.  어른들은 수변카페와 전망 데크에서 여유를 즐기고 아이들은 놀이터와 어린이물놀이장에서 신나는 놀이를 즐길 수 있습니다.  또한 기본적인 화장실 샤워장 편의점 등의 편의시설도 알차게 갖추어진 만큼 보다 편하고 즐겁게 캠핑을 즐길 수 있습니다.","중랑캠핑숲은 1박 2일 4인 기준 1사이트당 25000원으로 이용 가능합니다. (1대 주차 포함) 별도의 텐트 및 캠핑장비 대여는 하지 않지만 매트 대여는 현장에서 가능합니다","http://www.seoul.go.kr/story/camping/jungnang.html","지하철 이용시 중앙선 양원역 하차 2번출구로 나와서 도보 5분 거리","http://www.jungrangcamp.com/","","","","","","","","","","","","","","","","소개","이용안내","더 자세히보기","오시는 길","예약 바로가기","","","","","","","","","","","","","","","","","1","","#0000FF","","2018-06-28 13:28:56.0","2018-06-28 13:38:02.0"
"","서울특별시 강동구 둔촌동 562번지","127.151825938","37.536244557","100200","camp2018_9","KOR","강동그린웨이 가족캠핑장","서울특별시","강동구","","","","","","02-478-4079","자가 텐트를 설치할 수 있는 오토캠핑장과 텐트와 매트를 대여해  캠핑을 즐기는 가족캠핑장으로 구성되어 있으며 특히 오토캠핑장은 텐트 옆 주차가 가능합니다.   기본적인 식수대 식기세척실 화장실부터 샤워실 매점 등의 편의시설과 쉼터 다목적 운동장. 산책로 등이 잘 조성되어 있어 보다 편하게 자연 속의 휴식을 취할 수 있습니다.  특히 연결선만 준비하면 무료로 전기를 이용할 수 있어 정리가 필요한 주부님들이나  어둠이 무서운 아이들과 함께 하기 좋은 곳입니다. * 연결선은 10미터 이상으로 준비하는 것이 좋고 전력 사용량이 높은 제품 사용을 자제해주세요. 강동그린웨이 가족 캠핑장은 피크닉장 바비큐장이 따로 없으므로 모든 취사는 텐트 옆에서만 가능하며  간단한 바베큐 그릴과 숯 등은 매점에서도 구입할 수 있고 파라솔 대여도 가능합니다.","강동그린웨이 가족캠핑장은 4인 이용 1사이트 기준으로 오토캠핑장 21000원 가족 캠핑장 20000원으로 저렴하게 즐길 수 있습니다.","http://www.seoul.go.kr/story/camping/gangdong.html","*대중교통 이용시 지하철 : 강동역 4번출구로 나와서 연계버스 이용 버스 : 간선 (361.370.342)  일반(30-2.30-3.112.112-1.112-5.3412)  좌석(1113-1) *차량 이용 시 천호대로 206길 87","https://camp.xticket.kr/web/main?shopEncode=5f9422e223671b122a7f2c94f4e15c6f71cd1a49141314cf19adccb98162b5b0","","","","","","","","","","","","","","","","소개","이용안내","더 자세히보기","오시는 길","예약 바로가기","","","","","","","","","","","","","","","","","1","","#0000FF","","2018-06-28 13:28:56.0","2018-06-28 13:38:25.0"